HW5 - Make Data Move
…
## tibble [1,704 x 6] (S3: tbl_df/tbl/data.frame)
##  $ country  : Factor w/ 142 levels "Afghanistan",..: 1 1 1 1 1 1 1 1 1 1 ...
##  $ continent: Factor w/ 5 levels "Africa","Americas",..: 3 3 3 3 3 3 3 3 3 3 ...
##  $ year     : int [1:1704] 1952 1957 1962 1967 1972 1977 1982 1987 1992 1997 ...
##  $ lifeExp  : num [1:1704] 28.8 30.3 32 34 36.1 ...
##  $ pop      : int [1:1704] 8425333 9240934 10267083 11537966 13079460 14880372 12881816 13867957 16317921 22227415 ...
##  $ gdpPercap: num [1:1704] 779 821 853 836 740 ...

unique(gapminder$year)

##  [1] 1952 1957 1962 1967 1972 1977 1982 1987 1992 1997 2002 2007

gapminder

## # A tibble: 1,704 x 6
##    country     continent  year lifeExp      pop gdpPercap
##    <fct>       <fct>     <int>   <dbl>    <int>     <dbl>
##  1 Afghanistan Asia       1952    28.8  8425333      779.
##  2 Afghanistan Asia       1957    30.3  9240934      821.
##  3 Afghanistan Asia       1962    32.0 10267083      853.
##  4 Afghanistan Asia       1967    34.0 11537966      836.
##  5 Afghanistan Asia       1972    36.1 13079460      740.
##  6 Afghanistan Asia       1977    38.4 14880372      786.
##  7 Afghanistan Asia       1982    39.9 12881816      978.
##  8 Afghanistan Asia       1987    40.8 13867957      852.
##  9 Afghanistan Asia       1992    41.7 16317921      649.
## 10 Afghanistan Asia       1997    41.8 22227415      635.
## # ... with 1,694 more rows
…
Who is the outlier (the richest country in 1952 - far right on x axis)?
 first, we specify the dataset. Then we filter for the year we want. 
Then we arrange the data, so that the gdpPercap is arranged in a 
descending order. Here we can see that Kuwait is the outlier

gapminder %>% 
  filter(year==1952) %>% 
  arrange(desc(gdpPercap))

## # A tibble: 142 x 6
##    country        continent  year lifeExp       pop gdpPercap
##    <fct>          <fct>     <int>   <dbl>     <int>     <dbl>
##  1 Kuwait         Asia       1952    55.6    160000   108382.
##  2 Switzerland    Europe     1952    69.6   4815000    14734.
##  3 United States  Americas   1952    68.4 157553000    13990.
##  4 Canada         Americas   1952    68.8  14785584    11367.
##  5 New Zealand    Oceania    1952    69.4   1994794    10557.
##  6 Norway         Europe     1952    72.7   3327728    10095.
##  7 Australia      Oceania    1952    69.1   8691212    10040.
##  8 United Kingdom Europe     1952    69.2  50430000     9980.
##  9 Bahrain        Asia       1952    50.9    120447     9867.
## 10 Denmark        Europe     1952    70.8   4334000     9692.
## # ... with 132 more rows
…
